// This code was created by PyGmsh v3.0.2.
p0 = newp;
Point(p0) = {0.000123, 8e-06, 1.4e-05, 9.149999999999999e-07};
p1 = newp;
Point(p1) = {0.00012910000000000002, 8e-06, 1.4e-05, 9.149999999999999e-07};
p2 = newp;
Point(p2) = {0.000123, 1.41e-05, 1.4e-05, 9.149999999999999e-07};
p3 = newp;
Point(p3) = {0.000123, 8e-06, 2.01e-05, 9.149999999999999e-07};
p4 = newp;
Point(p4) = {0.00011690000000000001, 8e-06, 1.4e-05, 9.149999999999999e-07};
p5 = newp;
Point(p5) = {0.000123, 1.8999999999999996e-06, 1.4e-05, 9.149999999999999e-07};
p6 = newp;
Point(p6) = {0.000123, 8e-06, 7.899999999999999e-06, 9.149999999999999e-07};
l0 = newl;
Ellipse(l0) = {p1, p0, p6, p6};
l1 = newl;
Ellipse(l1) = {p6, p0, p4, p4};
l2 = newl;
Ellipse(l2) = {p4, p0, p3, p3};
l3 = newl;
Ellipse(l3) = {p3, p0, p1, p1};
l4 = newl;
Ellipse(l4) = {p1, p0, p2, p2};
l5 = newl;
Ellipse(l5) = {p2, p0, p4, p4};
l6 = newl;
Ellipse(l6) = {p4, p0, p5, p5};
l7 = newl;
Ellipse(l7) = {p5, p0, p1, p1};
l8 = newl;
Ellipse(l8) = {p6, p0, p2, p2};
l9 = newl;
Ellipse(l9) = {p2, p0, p3, p3};
l10 = newl;
Ellipse(l10) = {p3, p0, p5, p5};
l11 = newl;
Ellipse(l11) = {p5, p0, p6, p6};
ll0 = newll;
Line Loop(ll0) = {l4, l9, l3};
ll1 = newll;
Line Loop(ll1) = {l8, -l4, l0};
ll2 = newll;
Line Loop(ll2) = {-l9, l5, l2};
ll3 = newll;
Line Loop(ll3) = {-l5, -l8, l1};
ll4 = newll;
Line Loop(ll4) = {l7, -l3, l10};
ll5 = newll;
Line Loop(ll5) = {l11, -l7, -l0};
ll6 = newll;
Line Loop(ll6) = {-l10, -l2, l6};
ll7 = newll;
Line Loop(ll7) = {-l1, -l6, -l11};
rs0 = news;
Ruled Surface(rs0) = {ll0};
rs1 = news;
Ruled Surface(rs1) = {ll1};
rs2 = news;
Ruled Surface(rs2) = {ll2};
rs3 = news;
Ruled Surface(rs3) = {ll3};
rs4 = news;
Ruled Surface(rs4) = {ll4};
rs5 = news;
Ruled Surface(rs5) = {ll5};
rs6 = news;
Ruled Surface(rs6) = {ll6};
rs7 = news;
Ruled Surface(rs7) = {ll7};
s0 = news;
Compound Surface(s0) = {rs0,rs1,rs2,rs3};
s1 = news;
Compound Surface(s1) = {rs4,rs5,rs6,rs7};
sl0 = news;
Surface Loop(sl0) = {s0,s1};
Physical Surface("SphereSurf0") = s0;
Physical Surface("SphereSurf1") = s1;