// This code was created by PyGmsh v3.0.2.
p28 = newp;
Point(p28) = {0.00024, 3e-05, 2.9e-05, 9.149999999999999e-07};
p29 = newp;
Point(p29) = {0.0002461, 3e-05, 2.9e-05, 9.149999999999999e-07};
p30 = newp;
Point(p30) = {0.00024, 3.61e-05, 2.9e-05, 9.149999999999999e-07};
p31 = newp;
Point(p31) = {0.00024, 3e-05, 3.51e-05, 9.149999999999999e-07};
p32 = newp;
Point(p32) = {0.0002339, 3e-05, 2.9e-05, 9.149999999999999e-07};
p33 = newp;
Point(p33) = {0.00024, 2.39e-05, 2.9e-05, 9.149999999999999e-07};
p34 = newp;
Point(p34) = {0.00024, 3e-05, 2.29e-05, 9.149999999999999e-07};
l48 = newl;
Ellipse(l48) = {p29, p28, p34, p34};
l49 = newl;
Ellipse(l49) = {p34, p28, p32, p32};
l50 = newl;
Ellipse(l50) = {p32, p28, p31, p31};
l51 = newl;
Ellipse(l51) = {p31, p28, p29, p29};
l52 = newl;
Ellipse(l52) = {p29, p28, p30, p30};
l53 = newl;
Ellipse(l53) = {p30, p28, p32, p32};
l54 = newl;
Ellipse(l54) = {p32, p28, p33, p33};
l55 = newl;
Ellipse(l55) = {p33, p28, p29, p29};
l56 = newl;
Ellipse(l56) = {p34, p28, p30, p30};
l57 = newl;
Ellipse(l57) = {p30, p28, p31, p31};
l58 = newl;
Ellipse(l58) = {p31, p28, p33, p33};
l59 = newl;
Ellipse(l59) = {p33, p28, p34, p34};
ll32 = newll;
Line Loop(ll32) = {l52, l57, l51};
ll33 = newll;
Line Loop(ll33) = {l56, -l52, l48};
ll34 = newll;
Line Loop(ll34) = {-l57, l53, l50};
ll35 = newll;
Line Loop(ll35) = {-l53, -l56, l49};
ll36 = newll;
Line Loop(ll36) = {l55, -l51, l58};
ll37 = newll;
Line Loop(ll37) = {l59, -l55, -l48};
ll38 = newll;
Line Loop(ll38) = {-l58, -l50, l54};
ll39 = newll;
Line Loop(ll39) = {-l49, -l54, -l59};
rs32 = news;
Ruled Surface(rs32) = {ll32};
rs33 = news;
Ruled Surface(rs33) = {ll33};
rs34 = news;
Ruled Surface(rs34) = {ll34};
rs35 = news;
Ruled Surface(rs35) = {ll35};
rs36 = news;
Ruled Surface(rs36) = {ll36};
rs37 = news;
Ruled Surface(rs37) = {ll37};
rs38 = news;
Ruled Surface(rs38) = {ll38};
rs39 = news;
Ruled Surface(rs39) = {ll39};
s8 = news;
Compound Surface(s8) = {rs32,rs33,rs34,rs35};
s9 = news;
Compound Surface(s9) = {rs36,rs37,rs38,rs39};
sl4 = news;
Surface Loop(sl4) = {s8,s9};
Physical Surface("SphereSurf0") = s8;
Physical Surface("SphereSurf1") = s9;