// This code was created by PyGmsh v3.0.2.
p70 = newp;
Point(p70) = {0.00015, 3.4e-05, 4.4e-05, 9.149999999999999e-07};
p71 = newp;
Point(p71) = {0.0001561, 3.4e-05, 4.4e-05, 9.149999999999999e-07};
p72 = newp;
Point(p72) = {0.00015, 4.01e-05, 4.4e-05, 9.149999999999999e-07};
p73 = newp;
Point(p73) = {0.00015, 3.4e-05, 5.01e-05, 9.149999999999999e-07};
p74 = newp;
Point(p74) = {0.00014389999999999997, 3.4e-05, 4.4e-05, 9.149999999999999e-07};
p75 = newp;
Point(p75) = {0.00015, 2.79e-05, 4.4e-05, 9.149999999999999e-07};
p76 = newp;
Point(p76) = {0.00015, 3.4e-05, 3.79e-05, 9.149999999999999e-07};
l120 = newl;
Ellipse(l120) = {p71, p70, p76, p76};
l121 = newl;
Ellipse(l121) = {p76, p70, p74, p74};
l122 = newl;
Ellipse(l122) = {p74, p70, p73, p73};
l123 = newl;
Ellipse(l123) = {p73, p70, p71, p71};
l124 = newl;
Ellipse(l124) = {p71, p70, p72, p72};
l125 = newl;
Ellipse(l125) = {p72, p70, p74, p74};
l126 = newl;
Ellipse(l126) = {p74, p70, p75, p75};
l127 = newl;
Ellipse(l127) = {p75, p70, p71, p71};
l128 = newl;
Ellipse(l128) = {p76, p70, p72, p72};
l129 = newl;
Ellipse(l129) = {p72, p70, p73, p73};
l130 = newl;
Ellipse(l130) = {p73, p70, p75, p75};
l131 = newl;
Ellipse(l131) = {p75, p70, p76, p76};
ll80 = newll;
Line Loop(ll80) = {l124, l129, l123};
ll81 = newll;
Line Loop(ll81) = {l128, -l124, l120};
ll82 = newll;
Line Loop(ll82) = {-l129, l125, l122};
ll83 = newll;
Line Loop(ll83) = {-l125, -l128, l121};
ll84 = newll;
Line Loop(ll84) = {l127, -l123, l130};
ll85 = newll;
Line Loop(ll85) = {l131, -l127, -l120};
ll86 = newll;
Line Loop(ll86) = {-l130, -l122, l126};
ll87 = newll;
Line Loop(ll87) = {-l121, -l126, -l131};
rs80 = news;
Ruled Surface(rs80) = {ll80};
rs81 = news;
Ruled Surface(rs81) = {ll81};
rs82 = news;
Ruled Surface(rs82) = {ll82};
rs83 = news;
Ruled Surface(rs83) = {ll83};
rs84 = news;
Ruled Surface(rs84) = {ll84};
rs85 = news;
Ruled Surface(rs85) = {ll85};
rs86 = news;
Ruled Surface(rs86) = {ll86};
rs87 = news;
Ruled Surface(rs87) = {ll87};
s20 = news;
Compound Surface(s20) = {rs80,rs81,rs82,rs83};
s21 = news;
Compound Surface(s21) = {rs84,rs85,rs86,rs87};
sl10 = news;
Surface Loop(sl10) = {s20,s21};
Physical Surface("SphereSurf0") = s20;
Physical Surface("SphereSurf1") = s21;