// This code was created by PyGmsh v3.0.2.
p63 = newp;
Point(p63) = {0.000138, 4.8e-05, 2.5e-05, 9.149999999999999e-07};
p64 = newp;
Point(p64) = {0.0001441, 4.8e-05, 2.5e-05, 9.149999999999999e-07};
p65 = newp;
Point(p65) = {0.000138, 5.41e-05, 2.5e-05, 9.149999999999999e-07};
p66 = newp;
Point(p66) = {0.000138, 4.8e-05, 3.1100000000000004e-05, 9.149999999999999e-07};
p67 = newp;
Point(p67) = {0.00013189999999999998, 4.8e-05, 2.5e-05, 9.149999999999999e-07};
p68 = newp;
Point(p68) = {0.000138, 4.19e-05, 2.5e-05, 9.149999999999999e-07};
p69 = newp;
Point(p69) = {0.000138, 4.8e-05, 1.8900000000000002e-05, 9.149999999999999e-07};
l108 = newl;
Ellipse(l108) = {p64, p63, p69, p69};
l109 = newl;
Ellipse(l109) = {p69, p63, p67, p67};
l110 = newl;
Ellipse(l110) = {p67, p63, p66, p66};
l111 = newl;
Ellipse(l111) = {p66, p63, p64, p64};
l112 = newl;
Ellipse(l112) = {p64, p63, p65, p65};
l113 = newl;
Ellipse(l113) = {p65, p63, p67, p67};
l114 = newl;
Ellipse(l114) = {p67, p63, p68, p68};
l115 = newl;
Ellipse(l115) = {p68, p63, p64, p64};
l116 = newl;
Ellipse(l116) = {p69, p63, p65, p65};
l117 = newl;
Ellipse(l117) = {p65, p63, p66, p66};
l118 = newl;
Ellipse(l118) = {p66, p63, p68, p68};
l119 = newl;
Ellipse(l119) = {p68, p63, p69, p69};
ll72 = newll;
Line Loop(ll72) = {l112, l117, l111};
ll73 = newll;
Line Loop(ll73) = {l116, -l112, l108};
ll74 = newll;
Line Loop(ll74) = {-l117, l113, l110};
ll75 = newll;
Line Loop(ll75) = {-l113, -l116, l109};
ll76 = newll;
Line Loop(ll76) = {l115, -l111, l118};
ll77 = newll;
Line Loop(ll77) = {l119, -l115, -l108};
ll78 = newll;
Line Loop(ll78) = {-l118, -l110, l114};
ll79 = newll;
Line Loop(ll79) = {-l109, -l114, -l119};
rs72 = news;
Ruled Surface(rs72) = {ll72};
rs73 = news;
Ruled Surface(rs73) = {ll73};
rs74 = news;
Ruled Surface(rs74) = {ll74};
rs75 = news;
Ruled Surface(rs75) = {ll75};
rs76 = news;
Ruled Surface(rs76) = {ll76};
rs77 = news;
Ruled Surface(rs77) = {ll77};
rs78 = news;
Ruled Surface(rs78) = {ll78};
rs79 = news;
Ruled Surface(rs79) = {ll79};
s18 = news;
Compound Surface(s18) = {rs72,rs73,rs74,rs75};
s19 = news;
Compound Surface(s19) = {rs76,rs77,rs78,rs79};
sl9 = news;
Surface Loop(sl9) = {s18,s19};
Physical Surface("SphereSurf0") = s18;
Physical Surface("SphereSurf1") = s19;