// This code was created by PyGmsh v3.0.2.
p56 = newp;
Point(p56) = {0.0002, 2e-05, 1.6e-05, 9.149999999999999e-07};
p57 = newp;
Point(p57) = {0.00020610000000000002, 2e-05, 1.6e-05, 9.149999999999999e-07};
p58 = newp;
Point(p58) = {0.0002, 2.61e-05, 1.6e-05, 9.149999999999999e-07};
p59 = newp;
Point(p59) = {0.0002, 2e-05, 2.21e-05, 9.149999999999999e-07};
p60 = newp;
Point(p60) = {0.0001939, 2e-05, 1.6e-05, 9.149999999999999e-07};
p61 = newp;
Point(p61) = {0.0002, 1.3900000000000002e-05, 1.6e-05, 9.149999999999999e-07};
p62 = newp;
Point(p62) = {0.0002, 2e-05, 9.9e-06, 9.149999999999999e-07};
l96 = newl;
Ellipse(l96) = {p57, p56, p62, p62};
l97 = newl;
Ellipse(l97) = {p62, p56, p60, p60};
l98 = newl;
Ellipse(l98) = {p60, p56, p59, p59};
l99 = newl;
Ellipse(l99) = {p59, p56, p57, p57};
l100 = newl;
Ellipse(l100) = {p57, p56, p58, p58};
l101 = newl;
Ellipse(l101) = {p58, p56, p60, p60};
l102 = newl;
Ellipse(l102) = {p60, p56, p61, p61};
l103 = newl;
Ellipse(l103) = {p61, p56, p57, p57};
l104 = newl;
Ellipse(l104) = {p62, p56, p58, p58};
l105 = newl;
Ellipse(l105) = {p58, p56, p59, p59};
l106 = newl;
Ellipse(l106) = {p59, p56, p61, p61};
l107 = newl;
Ellipse(l107) = {p61, p56, p62, p62};
ll64 = newll;
Line Loop(ll64) = {l100, l105, l99};
ll65 = newll;
Line Loop(ll65) = {l104, -l100, l96};
ll66 = newll;
Line Loop(ll66) = {-l105, l101, l98};
ll67 = newll;
Line Loop(ll67) = {-l101, -l104, l97};
ll68 = newll;
Line Loop(ll68) = {l103, -l99, l106};
ll69 = newll;
Line Loop(ll69) = {l107, -l103, -l96};
ll70 = newll;
Line Loop(ll70) = {-l106, -l98, l102};
ll71 = newll;
Line Loop(ll71) = {-l97, -l102, -l107};
rs64 = news;
Ruled Surface(rs64) = {ll64};
rs65 = news;
Ruled Surface(rs65) = {ll65};
rs66 = news;
Ruled Surface(rs66) = {ll66};
rs67 = news;
Ruled Surface(rs67) = {ll67};
rs68 = news;
Ruled Surface(rs68) = {ll68};
rs69 = news;
Ruled Surface(rs69) = {ll69};
rs70 = news;
Ruled Surface(rs70) = {ll70};
rs71 = news;
Ruled Surface(rs71) = {ll71};
s16 = news;
Compound Surface(s16) = {rs64,rs65,rs66,rs67};
s17 = news;
Compound Surface(s17) = {rs68,rs69,rs70,rs71};
sl8 = news;
Surface Loop(sl8) = {s16,s17};
Physical Surface("SphereSurf0") = s16;
Physical Surface("SphereSurf1") = s17;