// This code was created by PyGmsh v3.0.2.
p21 = newp;
Point(p21) = {0.000256, 2.05e-05, 6.9e-05, 9.149999999999999e-07};
p22 = newp;
Point(p22) = {0.0002621, 2.05e-05, 6.9e-05, 9.149999999999999e-07};
p23 = newp;
Point(p23) = {0.000256, 2.66e-05, 6.9e-05, 9.149999999999999e-07};
p24 = newp;
Point(p24) = {0.000256, 2.05e-05, 7.51e-05, 9.149999999999999e-07};
p25 = newp;
Point(p25) = {0.0002499, 2.05e-05, 6.9e-05, 9.149999999999999e-07};
p26 = newp;
Point(p26) = {0.000256, 1.4400000000000001e-05, 6.9e-05, 9.149999999999999e-07};
p27 = newp;
Point(p27) = {0.000256, 2.05e-05, 6.29e-05, 9.149999999999999e-07};
l36 = newl;
Ellipse(l36) = {p22, p21, p27, p27};
l37 = newl;
Ellipse(l37) = {p27, p21, p25, p25};
l38 = newl;
Ellipse(l38) = {p25, p21, p24, p24};
l39 = newl;
Ellipse(l39) = {p24, p21, p22, p22};
l40 = newl;
Ellipse(l40) = {p22, p21, p23, p23};
l41 = newl;
Ellipse(l41) = {p23, p21, p25, p25};
l42 = newl;
Ellipse(l42) = {p25, p21, p26, p26};
l43 = newl;
Ellipse(l43) = {p26, p21, p22, p22};
l44 = newl;
Ellipse(l44) = {p27, p21, p23, p23};
l45 = newl;
Ellipse(l45) = {p23, p21, p24, p24};
l46 = newl;
Ellipse(l46) = {p24, p21, p26, p26};
l47 = newl;
Ellipse(l47) = {p26, p21, p27, p27};
ll24 = newll;
Line Loop(ll24) = {l40, l45, l39};
ll25 = newll;
Line Loop(ll25) = {l44, -l40, l36};
ll26 = newll;
Line Loop(ll26) = {-l45, l41, l38};
ll27 = newll;
Line Loop(ll27) = {-l41, -l44, l37};
ll28 = newll;
Line Loop(ll28) = {l43, -l39, l46};
ll29 = newll;
Line Loop(ll29) = {l47, -l43, -l36};
ll30 = newll;
Line Loop(ll30) = {-l46, -l38, l42};
ll31 = newll;
Line Loop(ll31) = {-l37, -l42, -l47};
rs24 = news;
Ruled Surface(rs24) = {ll24};
rs25 = news;
Ruled Surface(rs25) = {ll25};
rs26 = news;
Ruled Surface(rs26) = {ll26};
rs27 = news;
Ruled Surface(rs27) = {ll27};
rs28 = news;
Ruled Surface(rs28) = {ll28};
rs29 = news;
Ruled Surface(rs29) = {ll29};
rs30 = news;
Ruled Surface(rs30) = {ll30};
rs31 = news;
Ruled Surface(rs31) = {ll31};
s6 = news;
Compound Surface(s6) = {rs24,rs25,rs26,rs27};
s7 = news;
Compound Surface(s7) = {rs28,rs29,rs30,rs31};
sl3 = news;
Surface Loop(sl3) = {s6,s7};
Physical Surface("SphereSurf0") = s6;
Physical Surface("SphereSurf1") = s7;