// This code was created by PyGmsh v3.0.2.
p84 = newp;
Point(p84) = {0.000202, 4.9e-05, 7.5e-05, 9.149999999999999e-07};
p85 = newp;
Point(p85) = {0.00020810000000000002, 4.9e-05, 7.5e-05, 9.149999999999999e-07};
p86 = newp;
Point(p86) = {0.000202, 5.51e-05, 7.5e-05, 9.149999999999999e-07};
p87 = newp;
Point(p87) = {0.000202, 4.9e-05, 8.109999999999999e-05, 9.149999999999999e-07};
p88 = newp;
Point(p88) = {0.0001959, 4.9e-05, 7.5e-05, 9.149999999999999e-07};
p89 = newp;
Point(p89) = {0.000202, 4.29e-05, 7.5e-05, 9.149999999999999e-07};
p90 = newp;
Point(p90) = {0.000202, 4.9e-05, 6.89e-05, 9.149999999999999e-07};
l144 = newl;
Ellipse(l144) = {p85, p84, p90, p90};
l145 = newl;
Ellipse(l145) = {p90, p84, p88, p88};
l146 = newl;
Ellipse(l146) = {p88, p84, p87, p87};
l147 = newl;
Ellipse(l147) = {p87, p84, p85, p85};
l148 = newl;
Ellipse(l148) = {p85, p84, p86, p86};
l149 = newl;
Ellipse(l149) = {p86, p84, p88, p88};
l150 = newl;
Ellipse(l150) = {p88, p84, p89, p89};
l151 = newl;
Ellipse(l151) = {p89, p84, p85, p85};
l152 = newl;
Ellipse(l152) = {p90, p84, p86, p86};
l153 = newl;
Ellipse(l153) = {p86, p84, p87, p87};
l154 = newl;
Ellipse(l154) = {p87, p84, p89, p89};
l155 = newl;
Ellipse(l155) = {p89, p84, p90, p90};
ll96 = newll;
Line Loop(ll96) = {l148, l153, l147};
ll97 = newll;
Line Loop(ll97) = {l152, -l148, l144};
ll98 = newll;
Line Loop(ll98) = {-l153, l149, l146};
ll99 = newll;
Line Loop(ll99) = {-l149, -l152, l145};
ll100 = newll;
Line Loop(ll100) = {l151, -l147, l154};
ll101 = newll;
Line Loop(ll101) = {l155, -l151, -l144};
ll102 = newll;
Line Loop(ll102) = {-l154, -l146, l150};
ll103 = newll;
Line Loop(ll103) = {-l145, -l150, -l155};
rs96 = news;
Ruled Surface(rs96) = {ll96};
rs97 = news;
Ruled Surface(rs97) = {ll97};
rs98 = news;
Ruled Surface(rs98) = {ll98};
rs99 = news;
Ruled Surface(rs99) = {ll99};
rs100 = news;
Ruled Surface(rs100) = {ll100};
rs101 = news;
Ruled Surface(rs101) = {ll101};
rs102 = news;
Ruled Surface(rs102) = {ll102};
rs103 = news;
Ruled Surface(rs103) = {ll103};
s24 = news;
Compound Surface(s24) = {rs96,rs97,rs98,rs99};
s25 = news;
Compound Surface(s25) = {rs100,rs101,rs102,rs103};
sl12 = news;
Surface Loop(sl12) = {s24,s25};
Physical Surface("SphereSurf0") = s24;
Physical Surface("SphereSurf1") = s25;