// This code was created by PyGmsh v3.0.2.
p126 = newp;
Point(p126) = {9.4e-05, 3.2e-05, 7.6e-05, 9.149999999999999e-07};
p127 = newp;
Point(p127) = {0.0001001, 3.2e-05, 7.6e-05, 9.149999999999999e-07};
p128 = newp;
Point(p128) = {9.4e-05, 3.81e-05, 7.6e-05, 9.149999999999999e-07};
p129 = newp;
Point(p129) = {9.4e-05, 3.2e-05, 8.21e-05, 9.149999999999999e-07};
p130 = newp;
Point(p130) = {8.79e-05, 3.2e-05, 7.6e-05, 9.149999999999999e-07};
p131 = newp;
Point(p131) = {9.4e-05, 2.59e-05, 7.6e-05, 9.149999999999999e-07};
p132 = newp;
Point(p132) = {9.4e-05, 3.2e-05, 6.99e-05, 9.149999999999999e-07};
l216 = newl;
Ellipse(l216) = {p127, p126, p132, p132};
l217 = newl;
Ellipse(l217) = {p132, p126, p130, p130};
l218 = newl;
Ellipse(l218) = {p130, p126, p129, p129};
l219 = newl;
Ellipse(l219) = {p129, p126, p127, p127};
l220 = newl;
Ellipse(l220) = {p127, p126, p128, p128};
l221 = newl;
Ellipse(l221) = {p128, p126, p130, p130};
l222 = newl;
Ellipse(l222) = {p130, p126, p131, p131};
l223 = newl;
Ellipse(l223) = {p131, p126, p127, p127};
l224 = newl;
Ellipse(l224) = {p132, p126, p128, p128};
l225 = newl;
Ellipse(l225) = {p128, p126, p129, p129};
l226 = newl;
Ellipse(l226) = {p129, p126, p131, p131};
l227 = newl;
Ellipse(l227) = {p131, p126, p132, p132};
ll144 = newll;
Line Loop(ll144) = {l220, l225, l219};
ll145 = newll;
Line Loop(ll145) = {l224, -l220, l216};
ll146 = newll;
Line Loop(ll146) = {-l225, l221, l218};
ll147 = newll;
Line Loop(ll147) = {-l221, -l224, l217};
ll148 = newll;
Line Loop(ll148) = {l223, -l219, l226};
ll149 = newll;
Line Loop(ll149) = {l227, -l223, -l216};
ll150 = newll;
Line Loop(ll150) = {-l226, -l218, l222};
ll151 = newll;
Line Loop(ll151) = {-l217, -l222, -l227};
rs144 = news;
Ruled Surface(rs144) = {ll144};
rs145 = news;
Ruled Surface(rs145) = {ll145};
rs146 = news;
Ruled Surface(rs146) = {ll146};
rs147 = news;
Ruled Surface(rs147) = {ll147};
rs148 = news;
Ruled Surface(rs148) = {ll148};
rs149 = news;
Ruled Surface(rs149) = {ll149};
rs150 = news;
Ruled Surface(rs150) = {ll150};
rs151 = news;
Ruled Surface(rs151) = {ll151};
s36 = news;
Compound Surface(s36) = {rs144,rs145,rs146,rs147};
s37 = news;
Compound Surface(s37) = {rs148,rs149,rs150,rs151};
sl18 = news;
Surface Loop(sl18) = {s36,s37};
Physical Surface("SphereSurf0") = s36;
Physical Surface("SphereSurf1") = s37;