// This code was created by PyGmsh v3.0.2.
p35 = newp;
Point(p35) = {0.000269, 5.1e-05, 5.5e-05, 9.149999999999999e-07};
p36 = newp;
Point(p36) = {0.00027509999999999996, 5.1e-05, 5.5e-05, 9.149999999999999e-07};
p37 = newp;
Point(p37) = {0.000269, 5.71e-05, 5.5e-05, 9.149999999999999e-07};
p38 = newp;
Point(p38) = {0.000269, 5.1e-05, 6.110000000000001e-05, 9.149999999999999e-07};
p39 = newp;
Point(p39) = {0.0002629, 5.1e-05, 5.5e-05, 9.149999999999999e-07};
p40 = newp;
Point(p40) = {0.000269, 4.49e-05, 5.5e-05, 9.149999999999999e-07};
p41 = newp;
Point(p41) = {0.000269, 5.1e-05, 4.89e-05, 9.149999999999999e-07};
l60 = newl;
Ellipse(l60) = {p36, p35, p41, p41};
l61 = newl;
Ellipse(l61) = {p41, p35, p39, p39};
l62 = newl;
Ellipse(l62) = {p39, p35, p38, p38};
l63 = newl;
Ellipse(l63) = {p38, p35, p36, p36};
l64 = newl;
Ellipse(l64) = {p36, p35, p37, p37};
l65 = newl;
Ellipse(l65) = {p37, p35, p39, p39};
l66 = newl;
Ellipse(l66) = {p39, p35, p40, p40};
l67 = newl;
Ellipse(l67) = {p40, p35, p36, p36};
l68 = newl;
Ellipse(l68) = {p41, p35, p37, p37};
l69 = newl;
Ellipse(l69) = {p37, p35, p38, p38};
l70 = newl;
Ellipse(l70) = {p38, p35, p40, p40};
l71 = newl;
Ellipse(l71) = {p40, p35, p41, p41};
ll40 = newll;
Line Loop(ll40) = {l64, l69, l63};
ll41 = newll;
Line Loop(ll41) = {l68, -l64, l60};
ll42 = newll;
Line Loop(ll42) = {-l69, l65, l62};
ll43 = newll;
Line Loop(ll43) = {-l65, -l68, l61};
ll44 = newll;
Line Loop(ll44) = {l67, -l63, l70};
ll45 = newll;
Line Loop(ll45) = {l71, -l67, -l60};
ll46 = newll;
Line Loop(ll46) = {-l70, -l62, l66};
ll47 = newll;
Line Loop(ll47) = {-l61, -l66, -l71};
rs40 = news;
Ruled Surface(rs40) = {ll40};
rs41 = news;
Ruled Surface(rs41) = {ll41};
rs42 = news;
Ruled Surface(rs42) = {ll42};
rs43 = news;
Ruled Surface(rs43) = {ll43};
rs44 = news;
Ruled Surface(rs44) = {ll44};
rs45 = news;
Ruled Surface(rs45) = {ll45};
rs46 = news;
Ruled Surface(rs46) = {ll46};
rs47 = news;
Ruled Surface(rs47) = {ll47};
s10 = news;
Compound Surface(s10) = {rs40,rs41,rs42,rs43};
s11 = news;
Compound Surface(s11) = {rs44,rs45,rs46,rs47};
sl5 = news;
Surface Loop(sl5) = {s10,s11};
Physical Surface("SphereSurf0") = s10;
Physical Surface("SphereSurf1") = s11;