// This code was created by PyGmsh v3.0.2.
p133 = newp;
Point(p133) = {0.00011, 2.8e-05, 5.1e-05, 9.149999999999999e-07};
p134 = newp;
Point(p134) = {0.0001161, 2.8e-05, 5.1e-05, 9.149999999999999e-07};
p135 = newp;
Point(p135) = {0.00011, 3.41e-05, 5.1e-05, 9.149999999999999e-07};
p136 = newp;
Point(p136) = {0.00011, 2.8e-05, 5.71e-05, 9.149999999999999e-07};
p137 = newp;
Point(p137) = {0.0001039, 2.8e-05, 5.1e-05, 9.149999999999999e-07};
p138 = newp;
Point(p138) = {0.00011, 2.19e-05, 5.1e-05, 9.149999999999999e-07};
p139 = newp;
Point(p139) = {0.00011, 2.8e-05, 4.49e-05, 9.149999999999999e-07};
l228 = newl;
Ellipse(l228) = {p134, p133, p139, p139};
l229 = newl;
Ellipse(l229) = {p139, p133, p137, p137};
l230 = newl;
Ellipse(l230) = {p137, p133, p136, p136};
l231 = newl;
Ellipse(l231) = {p136, p133, p134, p134};
l232 = newl;
Ellipse(l232) = {p134, p133, p135, p135};
l233 = newl;
Ellipse(l233) = {p135, p133, p137, p137};
l234 = newl;
Ellipse(l234) = {p137, p133, p138, p138};
l235 = newl;
Ellipse(l235) = {p138, p133, p134, p134};
l236 = newl;
Ellipse(l236) = {p139, p133, p135, p135};
l237 = newl;
Ellipse(l237) = {p135, p133, p136, p136};
l238 = newl;
Ellipse(l238) = {p136, p133, p138, p138};
l239 = newl;
Ellipse(l239) = {p138, p133, p139, p139};
ll152 = newll;
Line Loop(ll152) = {l232, l237, l231};
ll153 = newll;
Line Loop(ll153) = {l236, -l232, l228};
ll154 = newll;
Line Loop(ll154) = {-l237, l233, l230};
ll155 = newll;
Line Loop(ll155) = {-l233, -l236, l229};
ll156 = newll;
Line Loop(ll156) = {l235, -l231, l238};
ll157 = newll;
Line Loop(ll157) = {l239, -l235, -l228};
ll158 = newll;
Line Loop(ll158) = {-l238, -l230, l234};
ll159 = newll;
Line Loop(ll159) = {-l229, -l234, -l239};
rs152 = news;
Ruled Surface(rs152) = {ll152};
rs153 = news;
Ruled Surface(rs153) = {ll153};
rs154 = news;
Ruled Surface(rs154) = {ll154};
rs155 = news;
Ruled Surface(rs155) = {ll155};
rs156 = news;
Ruled Surface(rs156) = {ll156};
rs157 = news;
Ruled Surface(rs157) = {ll157};
rs158 = news;
Ruled Surface(rs158) = {ll158};
rs159 = news;
Ruled Surface(rs159) = {ll159};
s38 = news;
Compound Surface(s38) = {rs152,rs153,rs154,rs155};
s39 = news;
Compound Surface(s39) = {rs156,rs157,rs158,rs159};
sl19 = news;
Surface Loop(sl19) = {s38,s39};
Physical Surface("SphereSurf0") = s38;
Physical Surface("SphereSurf1") = s39;