// This code was created by PyGmsh v3.0.2.
p49 = newp;
Point(p49) = {0.000161, 2.6e-05, 7.5e-05, 9.149999999999999e-07};
p50 = newp;
Point(p50) = {0.00016710000000000002, 2.6e-05, 7.5e-05, 9.149999999999999e-07};
p51 = newp;
Point(p51) = {0.000161, 3.21e-05, 7.5e-05, 9.149999999999999e-07};
p52 = newp;
Point(p52) = {0.000161, 2.6e-05, 8.109999999999999e-05, 9.149999999999999e-07};
p53 = newp;
Point(p53) = {0.0001549, 2.6e-05, 7.5e-05, 9.149999999999999e-07};
p54 = newp;
Point(p54) = {0.000161, 1.99e-05, 7.5e-05, 9.149999999999999e-07};
p55 = newp;
Point(p55) = {0.000161, 2.6e-05, 6.89e-05, 9.149999999999999e-07};
l84 = newl;
Ellipse(l84) = {p50, p49, p55, p55};
l85 = newl;
Ellipse(l85) = {p55, p49, p53, p53};
l86 = newl;
Ellipse(l86) = {p53, p49, p52, p52};
l87 = newl;
Ellipse(l87) = {p52, p49, p50, p50};
l88 = newl;
Ellipse(l88) = {p50, p49, p51, p51};
l89 = newl;
Ellipse(l89) = {p51, p49, p53, p53};
l90 = newl;
Ellipse(l90) = {p53, p49, p54, p54};
l91 = newl;
Ellipse(l91) = {p54, p49, p50, p50};
l92 = newl;
Ellipse(l92) = {p55, p49, p51, p51};
l93 = newl;
Ellipse(l93) = {p51, p49, p52, p52};
l94 = newl;
Ellipse(l94) = {p52, p49, p54, p54};
l95 = newl;
Ellipse(l95) = {p54, p49, p55, p55};
ll56 = newll;
Line Loop(ll56) = {l88, l93, l87};
ll57 = newll;
Line Loop(ll57) = {l92, -l88, l84};
ll58 = newll;
Line Loop(ll58) = {-l93, l89, l86};
ll59 = newll;
Line Loop(ll59) = {-l89, -l92, l85};
ll60 = newll;
Line Loop(ll60) = {l91, -l87, l94};
ll61 = newll;
Line Loop(ll61) = {l95, -l91, -l84};
ll62 = newll;
Line Loop(ll62) = {-l94, -l86, l90};
ll63 = newll;
Line Loop(ll63) = {-l85, -l90, -l95};
rs56 = news;
Ruled Surface(rs56) = {ll56};
rs57 = news;
Ruled Surface(rs57) = {ll57};
rs58 = news;
Ruled Surface(rs58) = {ll58};
rs59 = news;
Ruled Surface(rs59) = {ll59};
rs60 = news;
Ruled Surface(rs60) = {ll60};
rs61 = news;
Ruled Surface(rs61) = {ll61};
rs62 = news;
Ruled Surface(rs62) = {ll62};
rs63 = news;
Ruled Surface(rs63) = {ll63};
s14 = news;
Compound Surface(s14) = {rs56,rs57,rs58,rs59};
s15 = news;
Compound Surface(s15) = {rs60,rs61,rs62,rs63};
sl7 = news;
Surface Loop(sl7) = {s14,s15};
Physical Surface("SphereSurf0") = s14;
Physical Surface("SphereSurf1") = s15;