// This code was created by PyGmsh v3.0.2.
p91 = newp;
Point(p91) = {0.00011, 1.6e-05, 2.2e-05, 9.149999999999999e-07};
p92 = newp;
Point(p92) = {0.0001161, 1.6e-05, 2.2e-05, 9.149999999999999e-07};
p93 = newp;
Point(p93) = {0.00011, 2.21e-05, 2.2e-05, 9.149999999999999e-07};
p94 = newp;
Point(p94) = {0.00011, 1.6e-05, 2.81e-05, 9.149999999999999e-07};
p95 = newp;
Point(p95) = {0.0001039, 1.6e-05, 2.2e-05, 9.149999999999999e-07};
p96 = newp;
Point(p96) = {0.00011, 9.9e-06, 2.2e-05, 9.149999999999999e-07};
p97 = newp;
Point(p97) = {0.00011, 1.6e-05, 1.59e-05, 9.149999999999999e-07};
l156 = newl;
Ellipse(l156) = {p92, p91, p97, p97};
l157 = newl;
Ellipse(l157) = {p97, p91, p95, p95};
l158 = newl;
Ellipse(l158) = {p95, p91, p94, p94};
l159 = newl;
Ellipse(l159) = {p94, p91, p92, p92};
l160 = newl;
Ellipse(l160) = {p92, p91, p93, p93};
l161 = newl;
Ellipse(l161) = {p93, p91, p95, p95};
l162 = newl;
Ellipse(l162) = {p95, p91, p96, p96};
l163 = newl;
Ellipse(l163) = {p96, p91, p92, p92};
l164 = newl;
Ellipse(l164) = {p97, p91, p93, p93};
l165 = newl;
Ellipse(l165) = {p93, p91, p94, p94};
l166 = newl;
Ellipse(l166) = {p94, p91, p96, p96};
l167 = newl;
Ellipse(l167) = {p96, p91, p97, p97};
ll104 = newll;
Line Loop(ll104) = {l160, l165, l159};
ll105 = newll;
Line Loop(ll105) = {l164, -l160, l156};
ll106 = newll;
Line Loop(ll106) = {-l165, l161, l158};
ll107 = newll;
Line Loop(ll107) = {-l161, -l164, l157};
ll108 = newll;
Line Loop(ll108) = {l163, -l159, l166};
ll109 = newll;
Line Loop(ll109) = {l167, -l163, -l156};
ll110 = newll;
Line Loop(ll110) = {-l166, -l158, l162};
ll111 = newll;
Line Loop(ll111) = {-l157, -l162, -l167};
rs104 = news;
Ruled Surface(rs104) = {ll104};
rs105 = news;
Ruled Surface(rs105) = {ll105};
rs106 = news;
Ruled Surface(rs106) = {ll106};
rs107 = news;
Ruled Surface(rs107) = {ll107};
rs108 = news;
Ruled Surface(rs108) = {ll108};
rs109 = news;
Ruled Surface(rs109) = {ll109};
rs110 = news;
Ruled Surface(rs110) = {ll110};
rs111 = news;
Ruled Surface(rs111) = {ll111};
s26 = news;
Compound Surface(s26) = {rs104,rs105,rs106,rs107};
s27 = news;
Compound Surface(s27) = {rs108,rs109,rs110,rs111};
sl13 = news;
Surface Loop(sl13) = {s26,s27};
Physical Surface("SphereSurf0") = s26;
Physical Surface("SphereSurf1") = s27;