// This code was created by PyGmsh v3.0.2.
p105 = newp;
Point(p105) = {9e-06, 4.4e-05, 8e-05, 9.149999999999999e-07};
p106 = newp;
Point(p106) = {1.5100000000000001e-05, 4.4e-05, 8e-05, 9.149999999999999e-07};
p107 = newp;
Point(p107) = {9e-06, 5.01e-05, 8e-05, 9.149999999999999e-07};
p108 = newp;
Point(p108) = {9e-06, 4.4e-05, 8.61e-05, 9.149999999999999e-07};
p109 = newp;
Point(p109) = {2.9e-06, 4.4e-05, 8e-05, 9.149999999999999e-07};
p110 = newp;
Point(p110) = {9e-06, 3.79e-05, 8e-05, 9.149999999999999e-07};
p111 = newp;
Point(p111) = {9e-06, 4.4e-05, 7.390000000000001e-05, 9.149999999999999e-07};
l180 = newl;
Ellipse(l180) = {p106, p105, p111, p111};
l181 = newl;
Ellipse(l181) = {p111, p105, p109, p109};
l182 = newl;
Ellipse(l182) = {p109, p105, p108, p108};
l183 = newl;
Ellipse(l183) = {p108, p105, p106, p106};
l184 = newl;
Ellipse(l184) = {p106, p105, p107, p107};
l185 = newl;
Ellipse(l185) = {p107, p105, p109, p109};
l186 = newl;
Ellipse(l186) = {p109, p105, p110, p110};
l187 = newl;
Ellipse(l187) = {p110, p105, p106, p106};
l188 = newl;
Ellipse(l188) = {p111, p105, p107, p107};
l189 = newl;
Ellipse(l189) = {p107, p105, p108, p108};
l190 = newl;
Ellipse(l190) = {p108, p105, p110, p110};
l191 = newl;
Ellipse(l191) = {p110, p105, p111, p111};
ll120 = newll;
Line Loop(ll120) = {l184, l189, l183};
ll121 = newll;
Line Loop(ll121) = {l188, -l184, l180};
ll122 = newll;
Line Loop(ll122) = {-l189, l185, l182};
ll123 = newll;
Line Loop(ll123) = {-l185, -l188, l181};
ll124 = newll;
Line Loop(ll124) = {l187, -l183, l190};
ll125 = newll;
Line Loop(ll125) = {l191, -l187, -l180};
ll126 = newll;
Line Loop(ll126) = {-l190, -l182, l186};
ll127 = newll;
Line Loop(ll127) = {-l181, -l186, -l191};
rs120 = news;
Ruled Surface(rs120) = {ll120};
rs121 = news;
Ruled Surface(rs121) = {ll121};
rs122 = news;
Ruled Surface(rs122) = {ll122};
rs123 = news;
Ruled Surface(rs123) = {ll123};
rs124 = news;
Ruled Surface(rs124) = {ll124};
rs125 = news;
Ruled Surface(rs125) = {ll125};
rs126 = news;
Ruled Surface(rs126) = {ll126};
rs127 = news;
Ruled Surface(rs127) = {ll127};
s30 = news;
Compound Surface(s30) = {rs120,rs121,rs122,rs123};
s31 = news;
Compound Surface(s31) = {rs124,rs125,rs126,rs127};
sl15 = news;
Surface Loop(sl15) = {s30,s31};
Physical Surface("SphereSurf0") = s30;
Physical Surface("SphereSurf1") = s31;