// This code was created by PyGmsh v3.0.2.
p112 = newp;
Point(p112) = {5.3e-05, 3.1e-05, 7e-05, 9.149999999999999e-07};
p113 = newp;
Point(p113) = {5.91e-05, 3.1e-05, 7e-05, 9.149999999999999e-07};
p114 = newp;
Point(p114) = {5.3e-05, 3.71e-05, 7e-05, 9.149999999999999e-07};
p115 = newp;
Point(p115) = {5.3e-05, 3.1e-05, 7.609999999999999e-05, 9.149999999999999e-07};
p116 = newp;
Point(p116) = {4.69e-05, 3.1e-05, 7e-05, 9.149999999999999e-07};
p117 = newp;
Point(p117) = {5.3e-05, 2.4900000000000002e-05, 7e-05, 9.149999999999999e-07};
p118 = newp;
Point(p118) = {5.3e-05, 3.1e-05, 6.39e-05, 9.149999999999999e-07};
l192 = newl;
Ellipse(l192) = {p113, p112, p118, p118};
l193 = newl;
Ellipse(l193) = {p118, p112, p116, p116};
l194 = newl;
Ellipse(l194) = {p116, p112, p115, p115};
l195 = newl;
Ellipse(l195) = {p115, p112, p113, p113};
l196 = newl;
Ellipse(l196) = {p113, p112, p114, p114};
l197 = newl;
Ellipse(l197) = {p114, p112, p116, p116};
l198 = newl;
Ellipse(l198) = {p116, p112, p117, p117};
l199 = newl;
Ellipse(l199) = {p117, p112, p113, p113};
l200 = newl;
Ellipse(l200) = {p118, p112, p114, p114};
l201 = newl;
Ellipse(l201) = {p114, p112, p115, p115};
l202 = newl;
Ellipse(l202) = {p115, p112, p117, p117};
l203 = newl;
Ellipse(l203) = {p117, p112, p118, p118};
ll128 = newll;
Line Loop(ll128) = {l196, l201, l195};
ll129 = newll;
Line Loop(ll129) = {l200, -l196, l192};
ll130 = newll;
Line Loop(ll130) = {-l201, l197, l194};
ll131 = newll;
Line Loop(ll131) = {-l197, -l200, l193};
ll132 = newll;
Line Loop(ll132) = {l199, -l195, l202};
ll133 = newll;
Line Loop(ll133) = {l203, -l199, -l192};
ll134 = newll;
Line Loop(ll134) = {-l202, -l194, l198};
ll135 = newll;
Line Loop(ll135) = {-l193, -l198, -l203};
rs128 = news;
Ruled Surface(rs128) = {ll128};
rs129 = news;
Ruled Surface(rs129) = {ll129};
rs130 = news;
Ruled Surface(rs130) = {ll130};
rs131 = news;
Ruled Surface(rs131) = {ll131};
rs132 = news;
Ruled Surface(rs132) = {ll132};
rs133 = news;
Ruled Surface(rs133) = {ll133};
rs134 = news;
Ruled Surface(rs134) = {ll134};
rs135 = news;
Ruled Surface(rs135) = {ll135};
s32 = news;
Compound Surface(s32) = {rs128,rs129,rs130,rs131};
s33 = news;
Compound Surface(s33) = {rs132,rs133,rs134,rs135};
sl16 = news;
Surface Loop(sl16) = {s32,s33};
Physical Surface("SphereSurf0") = s32;
Physical Surface("SphereSurf1") = s33;