// This code was created by PyGmsh v3.0.2.
p14 = newp;
Point(p14) = {0.000309, 3.95e-05, 4e-05, 9.149999999999999e-07};
p15 = newp;
Point(p15) = {0.00031509999999999996, 3.95e-05, 4e-05, 9.149999999999999e-07};
p16 = newp;
Point(p16) = {0.000309, 4.56e-05, 4e-05, 9.149999999999999e-07};
p17 = newp;
Point(p17) = {0.000309, 3.95e-05, 4.61e-05, 9.149999999999999e-07};
p18 = newp;
Point(p18) = {0.0003029, 3.95e-05, 4e-05, 9.149999999999999e-07};
p19 = newp;
Point(p19) = {0.000309, 3.34e-05, 4e-05, 9.149999999999999e-07};
p20 = newp;
Point(p20) = {0.000309, 3.95e-05, 3.3900000000000004e-05, 9.149999999999999e-07};
l24 = newl;
Ellipse(l24) = {p15, p14, p20, p20};
l25 = newl;
Ellipse(l25) = {p20, p14, p18, p18};
l26 = newl;
Ellipse(l26) = {p18, p14, p17, p17};
l27 = newl;
Ellipse(l27) = {p17, p14, p15, p15};
l28 = newl;
Ellipse(l28) = {p15, p14, p16, p16};
l29 = newl;
Ellipse(l29) = {p16, p14, p18, p18};
l30 = newl;
Ellipse(l30) = {p18, p14, p19, p19};
l31 = newl;
Ellipse(l31) = {p19, p14, p15, p15};
l32 = newl;
Ellipse(l32) = {p20, p14, p16, p16};
l33 = newl;
Ellipse(l33) = {p16, p14, p17, p17};
l34 = newl;
Ellipse(l34) = {p17, p14, p19, p19};
l35 = newl;
Ellipse(l35) = {p19, p14, p20, p20};
ll16 = newll;
Line Loop(ll16) = {l28, l33, l27};
ll17 = newll;
Line Loop(ll17) = {l32, -l28, l24};
ll18 = newll;
Line Loop(ll18) = {-l33, l29, l26};
ll19 = newll;
Line Loop(ll19) = {-l29, -l32, l25};
ll20 = newll;
Line Loop(ll20) = {l31, -l27, l34};
ll21 = newll;
Line Loop(ll21) = {l35, -l31, -l24};
ll22 = newll;
Line Loop(ll22) = {-l34, -l26, l30};
ll23 = newll;
Line Loop(ll23) = {-l25, -l30, -l35};
rs16 = news;
Ruled Surface(rs16) = {ll16};
rs17 = news;
Ruled Surface(rs17) = {ll17};
rs18 = news;
Ruled Surface(rs18) = {ll18};
rs19 = news;
Ruled Surface(rs19) = {ll19};
rs20 = news;
Ruled Surface(rs20) = {ll20};
rs21 = news;
Ruled Surface(rs21) = {ll21};
rs22 = news;
Ruled Surface(rs22) = {ll22};
rs23 = news;
Ruled Surface(rs23) = {ll23};
s4 = news;
Compound Surface(s4) = {rs16,rs17,rs18,rs19};
s5 = news;
Compound Surface(s5) = {rs20,rs21,rs22,rs23};
sl2 = news;
Surface Loop(sl2) = {s4,s5};
Physical Surface("SphereSurf0") = s4;
Physical Surface("SphereSurf1") = s5;