// This code was created by PyGmsh v3.0.2.
p119 = newp;
Point(p119) = {7e-05, 1.4e-05, 3.2e-05, 9.149999999999999e-07};
p120 = newp;
Point(p120) = {7.609999999999999e-05, 1.4e-05, 3.2e-05, 9.149999999999999e-07};
p121 = newp;
Point(p121) = {7e-05, 2.01e-05, 3.2e-05, 9.149999999999999e-07};
p122 = newp;
Point(p122) = {7e-05, 1.4e-05, 3.81e-05, 9.149999999999999e-07};
p123 = newp;
Point(p123) = {6.39e-05, 1.4e-05, 3.2e-05, 9.149999999999999e-07};
p124 = newp;
Point(p124) = {7e-05, 7.899999999999999e-06, 3.2e-05, 9.149999999999999e-07};
p125 = newp;
Point(p125) = {7e-05, 1.4e-05, 2.59e-05, 9.149999999999999e-07};
l204 = newl;
Ellipse(l204) = {p120, p119, p125, p125};
l205 = newl;
Ellipse(l205) = {p125, p119, p123, p123};
l206 = newl;
Ellipse(l206) = {p123, p119, p122, p122};
l207 = newl;
Ellipse(l207) = {p122, p119, p120, p120};
l208 = newl;
Ellipse(l208) = {p120, p119, p121, p121};
l209 = newl;
Ellipse(l209) = {p121, p119, p123, p123};
l210 = newl;
Ellipse(l210) = {p123, p119, p124, p124};
l211 = newl;
Ellipse(l211) = {p124, p119, p120, p120};
l212 = newl;
Ellipse(l212) = {p125, p119, p121, p121};
l213 = newl;
Ellipse(l213) = {p121, p119, p122, p122};
l214 = newl;
Ellipse(l214) = {p122, p119, p124, p124};
l215 = newl;
Ellipse(l215) = {p124, p119, p125, p125};
ll136 = newll;
Line Loop(ll136) = {l208, l213, l207};
ll137 = newll;
Line Loop(ll137) = {l212, -l208, l204};
ll138 = newll;
Line Loop(ll138) = {-l213, l209, l206};
ll139 = newll;
Line Loop(ll139) = {-l209, -l212, l205};
ll140 = newll;
Line Loop(ll140) = {l211, -l207, l214};
ll141 = newll;
Line Loop(ll141) = {l215, -l211, -l204};
ll142 = newll;
Line Loop(ll142) = {-l214, -l206, l210};
ll143 = newll;
Line Loop(ll143) = {-l205, -l210, -l215};
rs136 = news;
Ruled Surface(rs136) = {ll136};
rs137 = news;
Ruled Surface(rs137) = {ll137};
rs138 = news;
Ruled Surface(rs138) = {ll138};
rs139 = news;
Ruled Surface(rs139) = {ll139};
rs140 = news;
Ruled Surface(rs140) = {ll140};
rs141 = news;
Ruled Surface(rs141) = {ll141};
rs142 = news;
Ruled Surface(rs142) = {ll142};
rs143 = news;
Ruled Surface(rs143) = {ll143};
s34 = news;
Compound Surface(s34) = {rs136,rs137,rs138,rs139};
s35 = news;
Compound Surface(s35) = {rs140,rs141,rs142,rs143};
sl17 = news;
Surface Loop(sl17) = {s34,s35};
Physical Surface("SphereSurf0") = s34;
Physical Surface("SphereSurf1") = s35;