// This code was created by PyGmsh v3.0.2.
p42 = newp;
Point(p42) = {1.4e-05, 2.9e-05, 2.8e-05, 9.149999999999999e-07};
p43 = newp;
Point(p43) = {2.01e-05, 2.9e-05, 2.8e-05, 9.149999999999999e-07};
p44 = newp;
Point(p44) = {1.4e-05, 3.51e-05, 2.8e-05, 9.149999999999999e-07};
p45 = newp;
Point(p45) = {1.4e-05, 2.9e-05, 3.41e-05, 9.149999999999999e-07};
p46 = newp;
Point(p46) = {7.899999999999999e-06, 2.9e-05, 2.8e-05, 9.149999999999999e-07};
p47 = newp;
Point(p47) = {1.4e-05, 2.29e-05, 2.8e-05, 9.149999999999999e-07};
p48 = newp;
Point(p48) = {1.4e-05, 2.9e-05, 2.19e-05, 9.149999999999999e-07};
l72 = newl;
Ellipse(l72) = {p43, p42, p48, p48};
l73 = newl;
Ellipse(l73) = {p48, p42, p46, p46};
l74 = newl;
Ellipse(l74) = {p46, p42, p45, p45};
l75 = newl;
Ellipse(l75) = {p45, p42, p43, p43};
l76 = newl;
Ellipse(l76) = {p43, p42, p44, p44};
l77 = newl;
Ellipse(l77) = {p44, p42, p46, p46};
l78 = newl;
Ellipse(l78) = {p46, p42, p47, p47};
l79 = newl;
Ellipse(l79) = {p47, p42, p43, p43};
l80 = newl;
Ellipse(l80) = {p48, p42, p44, p44};
l81 = newl;
Ellipse(l81) = {p44, p42, p45, p45};
l82 = newl;
Ellipse(l82) = {p45, p42, p47, p47};
l83 = newl;
Ellipse(l83) = {p47, p42, p48, p48};
ll48 = newll;
Line Loop(ll48) = {l76, l81, l75};
ll49 = newll;
Line Loop(ll49) = {l80, -l76, l72};
ll50 = newll;
Line Loop(ll50) = {-l81, l77, l74};
ll51 = newll;
Line Loop(ll51) = {-l77, -l80, l73};
ll52 = newll;
Line Loop(ll52) = {l79, -l75, l82};
ll53 = newll;
Line Loop(ll53) = {l83, -l79, -l72};
ll54 = newll;
Line Loop(ll54) = {-l82, -l74, l78};
ll55 = newll;
Line Loop(ll55) = {-l73, -l78, -l83};
rs48 = news;
Ruled Surface(rs48) = {ll48};
rs49 = news;
Ruled Surface(rs49) = {ll49};
rs50 = news;
Ruled Surface(rs50) = {ll50};
rs51 = news;
Ruled Surface(rs51) = {ll51};
rs52 = news;
Ruled Surface(rs52) = {ll52};
rs53 = news;
Ruled Surface(rs53) = {ll53};
rs54 = news;
Ruled Surface(rs54) = {ll54};
rs55 = news;
Ruled Surface(rs55) = {ll55};
s12 = news;
Compound Surface(s12) = {rs48,rs49,rs50,rs51};
s13 = news;
Compound Surface(s13) = {rs52,rs53,rs54,rs55};
sl6 = news;
Surface Loop(sl6) = {s12,s13};
Physical Surface("SphereSurf0") = s12;
Physical Surface("SphereSurf1") = s13;