// This code was created by PyGmsh v3.0.2.
p98 = newp;
Point(p98) = {2.5e-05, 7e-06, 4.1e-05, 9.149999999999999e-07};
p99 = newp;
Point(p99) = {3.1100000000000004e-05, 7e-06, 4.1e-05, 9.149999999999999e-07};
p100 = newp;
Point(p100) = {2.5e-05, 1.31e-05, 4.1e-05, 9.149999999999999e-07};
p101 = newp;
Point(p101) = {2.5e-05, 7e-06, 4.71e-05, 9.149999999999999e-07};
p102 = newp;
Point(p102) = {1.8900000000000002e-05, 7e-06, 4.1e-05, 9.149999999999999e-07};
p103 = newp;
Point(p103) = {2.5e-05, 8.999999999999999e-07, 4.1e-05, 9.149999999999999e-07};
p104 = newp;
Point(p104) = {2.5e-05, 7e-06, 3.49e-05, 9.149999999999999e-07};
l168 = newl;
Ellipse(l168) = {p99, p98, p104, p104};
l169 = newl;
Ellipse(l169) = {p104, p98, p102, p102};
l170 = newl;
Ellipse(l170) = {p102, p98, p101, p101};
l171 = newl;
Ellipse(l171) = {p101, p98, p99, p99};
l172 = newl;
Ellipse(l172) = {p99, p98, p100, p100};
l173 = newl;
Ellipse(l173) = {p100, p98, p102, p102};
l174 = newl;
Ellipse(l174) = {p102, p98, p103, p103};
l175 = newl;
Ellipse(l175) = {p103, p98, p99, p99};
l176 = newl;
Ellipse(l176) = {p104, p98, p100, p100};
l177 = newl;
Ellipse(l177) = {p100, p98, p101, p101};
l178 = newl;
Ellipse(l178) = {p101, p98, p103, p103};
l179 = newl;
Ellipse(l179) = {p103, p98, p104, p104};
ll112 = newll;
Line Loop(ll112) = {l172, l177, l171};
ll113 = newll;
Line Loop(ll113) = {l176, -l172, l168};
ll114 = newll;
Line Loop(ll114) = {-l177, l173, l170};
ll115 = newll;
Line Loop(ll115) = {-l173, -l176, l169};
ll116 = newll;
Line Loop(ll116) = {l175, -l171, l178};
ll117 = newll;
Line Loop(ll117) = {l179, -l175, -l168};
ll118 = newll;
Line Loop(ll118) = {-l178, -l170, l174};
ll119 = newll;
Line Loop(ll119) = {-l169, -l174, -l179};
rs112 = news;
Ruled Surface(rs112) = {ll112};
rs113 = news;
Ruled Surface(rs113) = {ll113};
rs114 = news;
Ruled Surface(rs114) = {ll114};
rs115 = news;
Ruled Surface(rs115) = {ll115};
rs116 = news;
Ruled Surface(rs116) = {ll116};
rs117 = news;
Ruled Surface(rs117) = {ll117};
rs118 = news;
Ruled Surface(rs118) = {ll118};
rs119 = news;
Ruled Surface(rs119) = {ll119};
s28 = news;
Compound Surface(s28) = {rs112,rs113,rs114,rs115};
s29 = news;
Compound Surface(s29) = {rs116,rs117,rs118,rs119};
sl14 = news;
Surface Loop(sl14) = {s28,s29};
Physical Surface("SphereSurf0") = s28;
Physical Surface("SphereSurf1") = s29;