// This code was created by PyGmsh v3.0.2.
Merge 'Sphere0.stl';
Surface Loop(1)={1};
Surface Loop(2)={-1};
Volume(1)={1};
Physical Volume(1)={1};
Physical Surface(1)={1};
Merge 'Sphere1.stl';
Surface Loop(3)={2};
Surface Loop(4)={-2};
Volume(2)={3};
Physical Volume(2)={2};
Physical Surface(2)={2};
Merge 'Sphere2.stl';
Surface Loop(5)={3};
Surface Loop(6)={-3};
Volume(3)={5};
Physical Volume(3)={3};
Physical Surface(3)={3};
Merge 'Sphere3.stl';
Surface Loop(7)={4};
Surface Loop(8)={-4};
Volume(4)={7};
Physical Volume(4)={4};
Physical Surface(4)={4};
Merge 'Sphere4.stl';
Surface Loop(9)={5};
Surface Loop(10)={-5};
Volume(5)={9};
Physical Volume(5)={5};
Physical Surface(5)={5};
Merge 'Sphere5.stl';
Surface Loop(11)={6};
Surface Loop(12)={-6};
Volume(6)={11};
Physical Volume(6)={6};
Physical Surface(6)={6};
Merge 'Sphere6.stl';
Surface Loop(13)={7};
Surface Loop(14)={-7};
Volume(7)={13};
Physical Volume(7)={7};
Physical Surface(7)={7};
Merge 'Sphere7.stl';
Surface Loop(15)={8};
Surface Loop(16)={-8};
Volume(8)={15};
Physical Volume(8)={8};
Physical Surface(8)={8};
Merge 'Sphere8.stl';
Surface Loop(17)={9};
Surface Loop(18)={-9};
Volume(9)={17};
Physical Volume(9)={9};
Physical Surface(9)={9};
Merge 'Sphere9.stl';
Surface Loop(19)={10};
Surface Loop(20)={-10};
Volume(10)={19};
Physical Volume(10)={10};
Physical Surface(10)={10};
Merge 'Sphere10.stl';
Surface Loop(21)={11};
Surface Loop(22)={-11};
Volume(11)={21};
Physical Volume(11)={11};
Physical Surface(11)={11};
Merge 'Sphere11.stl';
Surface Loop(23)={12};
Surface Loop(24)={-12};
Volume(12)={23};
Physical Volume(12)={12};
Physical Surface(12)={12};
Merge 'Sphere12.stl';
Surface Loop(25)={13};
Surface Loop(26)={-13};
Volume(13)={25};
Physical Volume(13)={13};
Physical Surface(13)={13};
Merge 'Sphere13.stl';
Surface Loop(27)={14};
Surface Loop(28)={-14};
Volume(14)={27};
Physical Volume(14)={14};
Physical Surface(14)={14};
Merge 'Sphere14.stl';
Surface Loop(29)={15};
Surface Loop(30)={-15};
Volume(15)={29};
Physical Volume(15)={15};
Physical Surface(15)={15};
Merge 'Sphere15.stl';
Surface Loop(31)={16};
Surface Loop(32)={-16};
Volume(16)={31};
Physical Volume(16)={16};
Physical Surface(16)={16};
Merge 'Sphere16.stl';
Surface Loop(33)={17};
Surface Loop(34)={-17};
Volume(17)={33};
Physical Volume(17)={17};
Physical Surface(17)={17};
Merge 'Sphere17.stl';
Surface Loop(35)={18};
Surface Loop(36)={-18};
Volume(18)={35};
Physical Volume(18)={18};
Physical Surface(18)={18};
Merge 'Sphere18.stl';
Surface Loop(37)={19};
Surface Loop(38)={-19};
Volume(19)={37};
Physical Volume(19)={19};
Physical Surface(19)={19};
Merge 'Sphere19.stl';
Surface Loop(39)={20};
Surface Loop(40)={-20};
Volume(20)={39};
Physical Volume(20)={20};
Physical Surface(20)={20};
pel00=newp;
Point(pel00)={0, 0, 0, 4e-06};
pel10=newp;
Point(pel10)={0, 6e-05, 0, 4e-06};
pel025=newp;
Point(pel025)={0.00096, 0, 0, 4e-06};
pel125=newp;
Point(pel125)={0.00096, 6e-05, 0, 4e-06};
pel0z0=newp;
Point(pel0z0)={0, 0, 0.0001, 4e-06};
pel1z0=newp;
Point(pel1z0)={0, 6e-05, 0.0001, 4e-06};
pel0z25=newp;
Point(pel0z25)={0.00096, 0, 0.0001, 4e-06};
pel1z25=newp;
Point(pel1z25)={0.00096, 6e-05, 0.0001, 4e-06};
lel_y0=newl;
Line(lel_y0)={pel10,pel00};
lel_y25=newl;
Line(lel_y25)={pel125,pel025};
pel01=newp;
Point(pel01)={2e-05, 0, 0, 4e-06};
pel11=newp;
Point(pel11)={2e-05, 6e-05, 0, 4e-06};
pel02=newp;
Point(pel02)={6e-05, 0, 0, 4e-06};
pel12=newp;
Point(pel12)={6e-05, 6e-05, 0, 4e-06};
lel_y1=newl;
Line(lel_y1)={pel11,pel01};
lel_y2=newl;
Line(lel_y2)={pel12,pel02};
lel_xp1=newl;
Line(lel_xp1)={pel02,pel01};
lel_xp2=newl;
Line(lel_xp2)={pel12,pel11};
llel2=newll;
Line Loop(llel2)={lel_xp1,lel_y2,-lel_xp2,-lel_y1};
rsel2=news;
Surface(rsel2)={llel2};
pel03=newp;
Point(pel03)={0.0001, 0, 0, 4e-06};
pel13=newp;
Point(pel13)={0.0001, 6e-05, 0, 4e-06};
pel04=newp;
Point(pel04)={0.00014, 0, 0, 4e-06};
pel14=newp;
Point(pel14)={0.00014, 6e-05, 0, 4e-06};
lel_y3=newl;
Line(lel_y3)={pel13,pel03};
lel_y4=newl;
Line(lel_y4)={pel14,pel04};
lel_xp3=newl;
Line(lel_xp3)={pel04,pel03};
lel_xp4=newl;
Line(lel_xp4)={pel14,pel13};
llel4=newll;
Line Loop(llel4)={lel_xp3,lel_y4,-lel_xp4,-lel_y3};
rsel4=news;
Surface(rsel4)={llel4};
pel05=newp;
Point(pel05)={0.00018, 0, 0, 4e-06};
pel15=newp;
Point(pel15)={0.00018, 6e-05, 0, 4e-06};
pel06=newp;
Point(pel06)={0.00022, 0, 0, 4e-06};
pel16=newp;
Point(pel16)={0.00022, 6e-05, 0, 4e-06};
lel_y5=newl;
Line(lel_y5)={pel15,pel05};
lel_y6=newl;
Line(lel_y6)={pel16,pel06};
lel_xp5=newl;
Line(lel_xp5)={pel06,pel05};
lel_xp6=newl;
Line(lel_xp6)={pel16,pel15};
llel6=newll;
Line Loop(llel6)={lel_xp5,lel_y6,-lel_xp6,-lel_y5};
rsel6=news;
Surface(rsel6)={llel6};
pel07=newp;
Point(pel07)={0.00026, 0, 0, 4e-06};
pel17=newp;
Point(pel17)={0.00026, 6e-05, 0, 4e-06};
pel08=newp;
Point(pel08)={0.0003, 0, 0, 4e-06};
pel18=newp;
Point(pel18)={0.0003, 6e-05, 0, 4e-06};
lel_y7=newl;
Line(lel_y7)={pel17,pel07};
lel_y8=newl;
Line(lel_y8)={pel18,pel08};
lel_xp7=newl;
Line(lel_xp7)={pel08,pel07};
lel_xp8=newl;
Line(lel_xp8)={pel18,pel17};
llel8=newll;
Line Loop(llel8)={lel_xp7,lel_y8,-lel_xp8,-lel_y7};
rsel8=news;
Surface(rsel8)={llel8};
pel09=newp;
Point(pel09)={0.00034, 0, 0, 4e-06};
pel19=newp;
Point(pel19)={0.00034, 6e-05, 0, 4e-06};
pel010=newp;
Point(pel010)={0.00038, 0, 0, 4e-06};
pel110=newp;
Point(pel110)={0.00038, 6e-05, 0, 4e-06};
lel_y9=newl;
Line(lel_y9)={pel19,pel09};
lel_y10=newl;
Line(lel_y10)={pel110,pel010};
lel_xp9=newl;
Line(lel_xp9)={pel010,pel09};
lel_xp10=newl;
Line(lel_xp10)={pel110,pel19};
llel10=newll;
Line Loop(llel10)={lel_xp9,lel_y10,-lel_xp10,-lel_y9};
rsel10=news;
Surface(rsel10)={llel10};
pel011=newp;
Point(pel011)={0.00042, 0, 0, 4e-06};
pel111=newp;
Point(pel111)={0.00042, 6e-05, 0, 4e-06};
pel012=newp;
Point(pel012)={0.00046, 0, 0, 4e-06};
pel112=newp;
Point(pel112)={0.00046, 6e-05, 0, 4e-06};
lel_y11=newl;
Line(lel_y11)={pel111,pel011};
lel_y12=newl;
Line(lel_y12)={pel112,pel012};
lel_xp11=newl;
Line(lel_xp11)={pel012,pel011};
lel_xp12=newl;
Line(lel_xp12)={pel112,pel111};
llel12=newll;
Line Loop(llel12)={lel_xp11,lel_y12,-lel_xp12,-lel_y11};
rsel12=news;
Surface(rsel12)={llel12};
pel013=newp;
Point(pel013)={0.0005, 0, 0, 4e-06};
pel113=newp;
Point(pel113)={0.0005, 6e-05, 0, 4e-06};
pel014=newp;
Point(pel014)={0.00054, 0, 0, 4e-06};
pel114=newp;
Point(pel114)={0.00054, 6e-05, 0, 4e-06};
lel_y13=newl;
Line(lel_y13)={pel113,pel013};
lel_y14=newl;
Line(lel_y14)={pel114,pel014};
lel_xp13=newl;
Line(lel_xp13)={pel014,pel013};
lel_xp14=newl;
Line(lel_xp14)={pel114,pel113};
llel14=newll;
Line Loop(llel14)={lel_xp13,lel_y14,-lel_xp14,-lel_y13};
rsel14=news;
Surface(rsel14)={llel14};
pel015=newp;
Point(pel015)={0.00058, 0, 0, 4e-06};
pel115=newp;
Point(pel115)={0.00058, 6e-05, 0, 4e-06};
pel016=newp;
Point(pel016)={0.00062, 0, 0, 4e-06};
pel116=newp;
Point(pel116)={0.00062, 6e-05, 0, 4e-06};
lel_y15=newl;
Line(lel_y15)={pel115,pel015};
lel_y16=newl;
Line(lel_y16)={pel116,pel016};
lel_xp15=newl;
Line(lel_xp15)={pel016,pel015};
lel_xp16=newl;
Line(lel_xp16)={pel116,pel115};
llel16=newll;
Line Loop(llel16)={lel_xp15,lel_y16,-lel_xp16,-lel_y15};
rsel16=news;
Surface(rsel16)={llel16};
pel017=newp;
Point(pel017)={0.00066, 0, 0, 4e-06};
pel117=newp;
Point(pel117)={0.00066, 6e-05, 0, 4e-06};
pel018=newp;
Point(pel018)={0.0007, 0, 0, 4e-06};
pel118=newp;
Point(pel118)={0.0007, 6e-05, 0, 4e-06};
lel_y17=newl;
Line(lel_y17)={pel117,pel017};
lel_y18=newl;
Line(lel_y18)={pel118,pel018};
lel_xp17=newl;
Line(lel_xp17)={pel018,pel017};
lel_xp18=newl;
Line(lel_xp18)={pel118,pel117};
llel18=newll;
Line Loop(llel18)={lel_xp17,lel_y18,-lel_xp18,-lel_y17};
rsel18=news;
Surface(rsel18)={llel18};
pel019=newp;
Point(pel019)={0.00074, 0, 0, 4e-06};
pel119=newp;
Point(pel119)={0.00074, 6e-05, 0, 4e-06};
pel020=newp;
Point(pel020)={0.00078, 0, 0, 4e-06};
pel120=newp;
Point(pel120)={0.00078, 6e-05, 0, 4e-06};
lel_y19=newl;
Line(lel_y19)={pel119,pel019};
lel_y20=newl;
Line(lel_y20)={pel120,pel020};
lel_xp19=newl;
Line(lel_xp19)={pel020,pel019};
lel_xp20=newl;
Line(lel_xp20)={pel120,pel119};
llel20=newll;
Line Loop(llel20)={lel_xp19,lel_y20,-lel_xp20,-lel_y19};
rsel20=news;
Surface(rsel20)={llel20};
pel021=newp;
Point(pel021)={0.00082, 0, 0, 4e-06};
pel121=newp;
Point(pel121)={0.00082, 6e-05, 0, 4e-06};
pel022=newp;
Point(pel022)={0.00086, 0, 0, 4e-06};
pel122=newp;
Point(pel122)={0.00086, 6e-05, 0, 4e-06};
lel_y21=newl;
Line(lel_y21)={pel121,pel021};
lel_y22=newl;
Line(lel_y22)={pel122,pel022};
lel_xp21=newl;
Line(lel_xp21)={pel022,pel021};
lel_xp22=newl;
Line(lel_xp22)={pel122,pel121};
llel22=newll;
Line Loop(llel22)={lel_xp21,lel_y22,-lel_xp22,-lel_y21};
rsel22=news;
Surface(rsel22)={llel22};
pel023=newp;
Point(pel023)={0.0009, 0, 0, 4e-06};
pel123=newp;
Point(pel123)={0.0009, 6e-05, 0, 4e-06};
pel024=newp;
Point(pel024)={0.00094, 0, 0, 4e-06};
pel124=newp;
Point(pel124)={0.00094, 6e-05, 0, 4e-06};
lel_y23=newl;
Line(lel_y23)={pel123,pel023};
lel_y24=newl;
Line(lel_y24)={pel124,pel024};
lel_xp23=newl;
Line(lel_xp23)={pel024,pel023};
lel_xp24=newl;
Line(lel_xp24)={pel124,pel123};
llel24=newll;
Line Loop(llel24)={lel_xp23,lel_y24,-lel_xp24,-lel_y23};
rsel24=news;
Surface(rsel24)={llel24};
lel_xg0=newl;
Line(lel_xg0)={pel01,pel00};
lel_xg1=newl;
Line(lel_xg1)={pel11,pel10};
llel1=newll;
Line Loop(llel1)={lel_xg0,lel_y1,-lel_xg1,-lel_y0};
rsel1=news;
Surface(rsel1)={llel1};
lel_xg2=newl;
Line(lel_xg2)={pel03,pel02};
lel_xg3=newl;
Line(lel_xg3)={pel13,pel12};
llel3=newll;
Line Loop(llel3)={lel_xg2,lel_y3,-lel_xg3,-lel_y2};
rsel3=news;
Surface(rsel3)={llel3};
lel_xg4=newl;
Line(lel_xg4)={pel05,pel04};
lel_xg5=newl;
Line(lel_xg5)={pel15,pel14};
llel5=newll;
Line Loop(llel5)={lel_xg4,lel_y5,-lel_xg5,-lel_y4};
rsel5=news;
Surface(rsel5)={llel5};
lel_xg6=newl;
Line(lel_xg6)={pel07,pel06};
lel_xg7=newl;
Line(lel_xg7)={pel17,pel16};
llel7=newll;
Line Loop(llel7)={lel_xg6,lel_y7,-lel_xg7,-lel_y6};
rsel7=news;
Surface(rsel7)={llel7};
lel_xg8=newl;
Line(lel_xg8)={pel09,pel08};
lel_xg9=newl;
Line(lel_xg9)={pel19,pel18};
llel9=newll;
Line Loop(llel9)={lel_xg8,lel_y9,-lel_xg9,-lel_y8};
rsel9=news;
Surface(rsel9)={llel9};
lel_xg10=newl;
Line(lel_xg10)={pel011,pel010};
lel_xg11=newl;
Line(lel_xg11)={pel111,pel110};
llel11=newll;
Line Loop(llel11)={lel_xg10,lel_y11,-lel_xg11,-lel_y10};
rsel11=news;
Surface(rsel11)={llel11};
lel_xg12=newl;
Line(lel_xg12)={pel013,pel012};
lel_xg13=newl;
Line(lel_xg13)={pel113,pel112};
llel13=newll;
Line Loop(llel13)={lel_xg12,lel_y13,-lel_xg13,-lel_y12};
rsel13=news;
Surface(rsel13)={llel13};
lel_xg14=newl;
Line(lel_xg14)={pel015,pel014};
lel_xg15=newl;
Line(lel_xg15)={pel115,pel114};
llel15=newll;
Line Loop(llel15)={lel_xg14,lel_y15,-lel_xg15,-lel_y14};
rsel15=news;
Surface(rsel15)={llel15};
lel_xg16=newl;
Line(lel_xg16)={pel017,pel016};
lel_xg17=newl;
Line(lel_xg17)={pel117,pel116};
llel17=newll;
Line Loop(llel17)={lel_xg16,lel_y17,-lel_xg17,-lel_y16};
rsel17=news;
Surface(rsel17)={llel17};
lel_xg18=newl;
Line(lel_xg18)={pel019,pel018};
lel_xg19=newl;
Line(lel_xg19)={pel119,pel118};
llel19=newll;
Line Loop(llel19)={lel_xg18,lel_y19,-lel_xg19,-lel_y18};
rsel19=news;
Surface(rsel19)={llel19};
lel_xg20=newl;
Line(lel_xg20)={pel021,pel020};
lel_xg21=newl;
Line(lel_xg21)={pel121,pel120};
llel21=newll;
Line Loop(llel21)={lel_xg20,lel_y21,-lel_xg21,-lel_y20};
rsel21=news;
Surface(rsel21)={llel21};
lel_xg22=newl;
Line(lel_xg22)={pel023,pel022};
lel_xg23=newl;
Line(lel_xg23)={pel123,pel122};
llel23=newll;
Line Loop(llel23)={lel_xg22,lel_y23,-lel_xg23,-lel_y22};
rsel23=news;
Surface(rsel23)={llel23};
lel_xg24=newl;
Line(lel_xg24)={pel025,pel024};
lel_xg25=newl;
Line(lel_xg25)={pel125,pel124};
llel25=newll;
Line Loop(llel25)={lel_xg24,lel_y25,-lel_xg25,-lel_y24};
rsel25=news;
Surface(rsel25)={llel25};
Physical Surface(21)={rsel4, rsel8, rsel12, rsel16, rsel20, rsel24};
Physical Surface(22)={rsel2, rsel6, rsel10, rsel14, rsel18, rsel22};
lel_00=newl;
Line(lel_00)={pel0z0,pel00};
lel_0N=newl;
Line(lel_0N)={pel0z25,pel025};
lel_0Nz=newl;
Line(lel_0Nz)={pel0z25,pel0z0};
llel_y0=newll;
Line Loop(llel_y0)={lel_xg0, lel_xp1, lel_xg2, lel_xp3, lel_xg4, lel_xp5, lel_xg6, lel_xp7, lel_xg8, lel_xp9, lel_xg10, lel_xp11, lel_xg12, lel_xp13, lel_xg14, lel_xp15, lel_xg16, lel_xp17, lel_xg18, lel_xp19, lel_xg20, lel_xp21, lel_xg22, lel_xp23, lel_xg24, lel_0N,-lel_0Nz,-lel_00};
rsel_y0=news;
Plane Surface(rsel_y0)={llel_y0};
Physical Surface(23)={rsel_y0};
lel_10=newl;
Line(lel_10)={pel1z0,pel10};
lel_1N=newl;
Line(lel_1N)={pel1z25,pel125};
lel_1Nz=newl;
Line(lel_1Nz)={pel1z25,pel1z0};
llel_y1=newll;
Line Loop(llel_y1)={lel_xg1, lel_xp2, lel_xg3, lel_xp4, lel_xg5, lel_xp6, lel_xg7, lel_xp8, lel_xg9, lel_xp10, lel_xg11, lel_xp12, lel_xg13, lel_xp14, lel_xg15, lel_xp16, lel_xg17, lel_xp18, lel_xg19, lel_xp20, lel_xg21, lel_xp22, lel_xg23, lel_xp24, lel_xg25, lel_1N,-lel_1Nz,-lel_10};
rsel_y1=news;
Plane Surface(rsel_y1)={llel_y1};
Physical Surface(24)={rsel_y1};
lel_11z=newl;
Line(lel_11z)={pel1z0,pel0z0};
lel_NNz=newl;
Line(lel_NNz)={pel1z25,pel0z25};
llel_x0=newll;
Line Loop(llel_x0)={lel_00,lel_11z,-lel_10,-lel_y0};
rsel_x0=news;
Surface(rsel_x0)={llel_x0};
Physical Surface(25)={rsel_x0};
llel_xN=newll;
Line Loop(llel_xN)={lel_0N,lel_NNz,-lel_1N,-lel_y25};
rsel_xN=news;
Surface(rsel_xN)={llel_xN};
Physical Surface(26)={rsel_xN};
llel_z1=newll;
Line Loop(llel_z1)={lel_0Nz,lel_NNz,-lel_1Nz,-lel_11z};
rsel_z1=news;
Surface(rsel_z1)={llel_z1};
Physical Surface(27)={rsel_z1};
s_box=newsl;
Surface Loop(s_box)={rsel1, rsel2, rsel3, rsel4, rsel5, rsel6, rsel7, rsel8, rsel9, rsel10, rsel11, rsel12, rsel13, rsel14, rsel15, rsel16, rsel17, rsel18, rsel19, rsel20, rsel21, rsel22, rsel23, rsel24, rsel25, rsel_xN, rsel_z1, rsel_x0, rsel_y0, rsel_y1};
Volume(21)={s_box,2,4,6,8,10,12,14,16,18,20,22,24,26,28,30,32,34,36,38,40};
Physical Volume(21)={21};